{
  "__inputs": [
    {
      "name": "DS_INFLUXDB",
      "label": "influxdb",
      "description": "",
      "type": "datasource",
      "pluginId": "influxdb",
      "pluginName": "InfluxDB"
    }
  ],
  "__elements": {},
  "__requires": [
    {
      "type": "panel",
      "id": "bargauge",
      "name": "Bar gauge",
      "version": ""
    },
    {
      "type": "grafana",
      "id": "grafana",
      "name": "Grafana",
      "version": "11.2.0"
    },
    {
      "type": "datasource",
      "id": "influxdb",
      "name": "InfluxDB",
      "version": "1.0.0"
    },
    {
      "type": "panel",
      "id": "logs",
      "name": "Logs",
      "version": ""
    },
    {
      "type": "panel",
      "id": "stat",
      "name": "Stat",
      "version": ""
    },
    {
      "type": "panel",
      "id": "timeseries",
      "name": "Time series",
      "version": ""
    }
  ],
  "annotations": {
    "list": [
      {
        "builtIn": 1,
        "datasource": {
          "type": "datasource",
          "uid": "grafana"
        },
        "enable": true,
        "hide": true,
        "iconColor": "rgba(0, 211, 255, 1)",
        "name": "Annotations & Alerts",
        "target": {
          "limit": 100,
          "matchAny": false,
          "tags": [],
          "type": "dashboard"
        },
        "type": "dashboard"
      }
    ]
  },
  "description": "Visualizes statistics for a Vintage Story game server.\r\n\r\n",
  "editable": true,
  "fiscalYearStartMonth": 0,
  "gnetId": 20163,
  "graphTooltip": 0,
  "id": null,
  "links": [],
  "liveNow": false,
  "panels": [
    {
      "collapsed": true,
      "datasource": {
        "type": "influxdb",
        "uid": "W4jibRH4z"
      },
      "gridPos": {
        "h": 1,
        "w": 24,
        "x": 0,
        "y": 0
      },
      "id": 49,
      "panels": [
        {
          "datasource": {
            "type": "influxdb",
            "uid": "${DS_INFLUXDB}"
          },
          "fieldConfig": {
            "defaults": {
              "color": {
                "mode": "thresholds"
              },
              "mappings": [],
              "thresholds": {
                "mode": "absolute",
                "steps": [
                  {
                    "color": "green"
                  }
                ]
              },
              "unit": "dateTimeAsSystem"
            },
            "overrides": []
          },
          "gridPos": {
            "h": 5,
            "w": 4,
            "x": 0,
            "y": 41
          },
          "id": 58,
          "options": {
            "colorMode": "value",
            "graphMode": "none",
            "justifyMode": "auto",
            "orientation": "auto",
            "reduceOptions": {
              "calcs": [
                "first"
              ],
              "fields": "/^_time$/",
              "values": false
            },
            "text": {},
            "textMode": "auto"
          },
          "pluginVersion": "9.4.7",
          "targets": [
            {
              "datasource": {
                "type": "influxdb",
                "uid": "${DS_INFLUXDB}"
              },
              "query": "from(bucket: \"${server}\")\n  |> range(start: -10y, stop: v.timeRangeStop)\n  |> filter(fn: (r) => r[\"_measurement\"] == \"online\")\n  |> filter(fn: (r) => r[\"player\"] == \"${player}\")\n  |> first()\n  |> keep(columns: [\"_time\"])",
              "refId": "A"
            }
          ],
          "title": "First time online",
          "type": "stat"
        },
        {
          "datasource": {
            "type": "influxdb",
            "uid": "${DS_INFLUXDB}"
          },
          "fieldConfig": {
            "defaults": {
              "color": {
                "mode": "thresholds"
              },
              "mappings": [],
              "thresholds": {
                "mode": "absolute",
                "steps": [
                  {
                    "color": "green"
                  }
                ]
              },
              "unit": "dateTimeAsSystem"
            },
            "overrides": []
          },
          "gridPos": {
            "h": 5,
            "w": 4,
            "x": 4,
            "y": 41
          },
          "id": 51,
          "options": {
            "colorMode": "value",
            "graphMode": "none",
            "justifyMode": "auto",
            "orientation": "auto",
            "reduceOptions": {
              "calcs": [
                "last"
              ],
              "fields": "/^_time$/",
              "values": false
            },
            "text": {},
            "textMode": "auto"
          },
          "pluginVersion": "9.4.7",
          "targets": [
            {
              "datasource": {
                "type": "influxdb",
                "uid": "${DS_INFLUXDB}"
              },
              "query": "from(bucket: \"${server}\")\n  |> range(start: -10y, stop: v.timeRangeStop)\n  |> filter(fn: (r) => r[\"_measurement\"] == \"online\")\n  |> filter(fn: (r) => r[\"player\"] == \"${player}\")\n  |> last()\n  |> keep(columns: [\"_time\"])",
              "refId": "A"
            }
          ],
          "title": "Last time online",
          "type": "stat"
        },
        {
          "datasource": {
            "type": "influxdb",
            "uid": "${DS_INFLUXDB}"
          },
          "fieldConfig": {
            "defaults": {
              "color": {
                "mode": "thresholds"
              },
              "mappings": [],
              "thresholds": {
                "mode": "absolute",
                "steps": [
                  {
                    "color": "green"
                  }
                ]
              },
              "unit": "s"
            },
            "overrides": []
          },
          "gridPos": {
            "h": 5,
            "w": 3,
            "x": 8,
            "y": 41
          },
          "id": 53,
          "options": {
            "colorMode": "value",
            "graphMode": "none",
            "justifyMode": "auto",
            "orientation": "auto",
            "reduceOptions": {
              "calcs": [
                "lastNotNull"
              ],
              "fields": "",
              "values": false
            },
            "textMode": "auto"
          },
          "pluginVersion": "9.4.7",
          "targets": [
            {
              "datasource": {
                "type": "influxdb",
                "uid": "${DS_INFLUXDB}"
              },
              "query": "from(bucket: \"$server\")\n  |> range(start: -10y, stop: v.timeRangeStop)\n  |> filter(fn: (r) => r[\"_measurement\"] == \"online\")\n  |> filter(fn: (r) => r[\"player\"] == \"${player}\")\n  |> count()\n  |> map(fn: (r) => ({ r with\n    _value: r._value * 10\n  }))\n  |> group()\n  |> keep(columns: [\"player\", \"_value\"])\n  |> sort(columns: [\"_value\"], desc: true)",
              "refId": "A"
            }
          ],
          "title": "Total Playtime",
          "type": "stat"
        },
        {
          "datasource": {
            "type": "influxdb",
            "uid": "${DS_INFLUXDB}"
          },
          "fieldConfig": {
            "defaults": {
              "color": {
                "mode": "thresholds"
              },
              "mappings": [],
              "thresholds": {
                "mode": "absolute",
                "steps": [
                  {
                    "color": "green"
                  },
                  {
                    "color": "red",
                    "value": 80
                  }
                ]
              }
            },
            "overrides": []
          },
          "gridPos": {
            "h": 5,
            "w": 3,
            "x": 11,
            "y": 41
          },
          "id": 55,
          "options": {
            "colorMode": "value",
            "graphMode": "none",
            "justifyMode": "auto",
            "orientation": "auto",
            "reduceOptions": {
              "calcs": [
                "lastNotNull"
              ],
              "fields": "",
              "values": false
            },
            "textMode": "auto"
          },
          "pluginVersion": "9.4.7",
          "targets": [
            {
              "datasource": {
                "type": "influxdb",
                "uid": "${DS_INFLUXDB}"
              },
              "query": "from(bucket: \"$server\")\n  |> range(start: -10y, stop: v.timeRangeStop)\n  |> filter(fn: (r) => r[\"_measurement\"] == \"deaths\")\n  |> filter(fn: (r) => r[\"player\"] == \"${player}\")\n  |> count()\n  |> yield(name: \"last\")",
              "refId": "A"
            }
          ],
          "title": "Total Deaths",
          "type": "stat"
        }
      ],
      "targets": [
        {
          "datasource": {
            "type": "influxdb",
            "uid": "W4jibRH4z"
          },
          "refId": "A"
        }
      ],
      "title": "Player Stats",
      "type": "row"
    },
    {
      "collapsed": false,
      "datasource": {
        "type": "influxdb",
        "uid": "W4jibRH4z"
      },
      "gridPos": {
        "h": 1,
        "w": 24,
        "x": 0,
        "y": 1
      },
      "id": 23,
      "panels": [],
      "targets": [
        {
          "datasource": {
            "type": "influxdb",
            "uid": "W4jibRH4z"
          },
          "refId": "A"
        }
      ],
      "title": "Quick Metrics",
      "type": "row"
    },
    {
      "datasource": {
        "type": "influxdb",
        "uid": "${DS_INFLUXDB}"
      },
      "description": "Shows the number of errors in the current time frame",
      "fieldConfig": {
        "defaults": {
          "color": {
            "mode": "thresholds"
          },
          "mappings": [],
          "noValue": "0",
          "thresholds": {
            "mode": "absolute",
            "steps": [
              {
                "color": "green",
                "value": null
              },
              {
                "color": "red",
                "value": 1
              }
            ]
          }
        },
        "overrides": []
      },
      "gridPos": {
        "h": 4,
        "w": 2,
        "x": 0,
        "y": 2
      },
      "id": 18,
      "options": {
        "colorMode": "value",
        "graphMode": "none",
        "justifyMode": "auto",
        "orientation": "auto",
        "percentChangeColorMode": "standard",
        "reduceOptions": {
          "calcs": [
            "lastNotNull"
          ],
          "fields": "",
          "values": false
        },
        "showPercentChange": false,
        "text": {},
        "textMode": "auto",
        "wideLayout": true
      },
      "pluginVersion": "11.2.0",
      "targets": [
        {
          "datasource": {
            "type": "influxdb",
            "uid": "${DS_INFLUXDB}"
          },
          "query": "from(bucket: \"$server\")\n  |> range(start: v.timeRangeStart, stop: v.timeRangeStop)\n  |> filter(fn: (r) => r[\"_measurement\"] == \"errors\")\n  |> filter(fn: (r) => r[\"_field\"] == \"value\")\n  |> count()\n  |> yield(name: \"count\")",
          "refId": "A"
        }
      ],
      "title": "Errors recent",
      "type": "stat"
    },
    {
      "datasource": {
        "type": "influxdb",
        "uid": "${DS_INFLUXDB}"
      },
      "description": "Errors since start of the server",
      "fieldConfig": {
        "defaults": {
          "color": {
            "mode": "thresholds"
          },
          "mappings": [],
          "thresholds": {
            "mode": "absolute",
            "steps": [
              {
                "color": "green",
                "value": null
              },
              {
                "color": "red",
                "value": 1
              }
            ]
          }
        },
        "overrides": []
      },
      "gridPos": {
        "h": 4,
        "w": 2,
        "x": 2,
        "y": 2
      },
      "id": 60,
      "options": {
        "colorMode": "value",
        "graphMode": "none",
        "justifyMode": "auto",
        "orientation": "auto",
        "percentChangeColorMode": "standard",
        "reduceOptions": {
          "calcs": [
            "lastNotNull"
          ],
          "fields": "",
          "values": false
        },
        "showPercentChange": false,
        "textMode": "auto",
        "wideLayout": true
      },
      "pluginVersion": "11.2.0",
      "targets": [
        {
          "datasource": {
            "type": "influxdb",
            "uid": "${DS_INFLUXDB}"
          },
          "query": "from(bucket: \"$server\")\n  |> range(start: -1mo)\n  |> filter(fn: (r) => r[\"_measurement\"] == \"errorsNum\")\n  |> last()",
          "refId": "A"
        }
      ],
      "title": "Errors since start",
      "type": "stat"
    },
    {
      "datasource": {
        "type": "influxdb",
        "uid": "${DS_INFLUXDB}"
      },
      "fieldConfig": {
        "defaults": {
          "color": {
            "mode": "thresholds"
          },
          "mappings": [],
          "noValue": "0",
          "thresholds": {
            "mode": "absolute",
            "steps": [
              {
                "color": "green",
                "value": null
              },
              {
                "color": "orange",
                "value": 1
              }
            ]
          }
        },
        "overrides": []
      },
      "gridPos": {
        "h": 4,
        "w": 2,
        "x": 4,
        "y": 2
      },
      "id": 19,
      "options": {
        "colorMode": "value",
        "graphMode": "none",
        "justifyMode": "auto",
        "orientation": "auto",
        "percentChangeColorMode": "standard",
        "reduceOptions": {
          "calcs": [
            "lastNotNull"
          ],
          "fields": "",
          "values": false
        },
        "showPercentChange": false,
        "text": {},
        "textMode": "auto",
        "wideLayout": true
      },
      "pluginVersion": "11.2.0",
      "targets": [
        {
          "datasource": {
            "type": "influxdb",
            "uid": "${DS_INFLUXDB}"
          },
          "query": "from(bucket: \"$server\")\n  |> range(start: v.timeRangeStart, stop: v.timeRangeStop)\n  |> filter(fn: (r) => r[\"_measurement\"] == \"warnings\")\n  |> filter(fn: (r) => r[\"_field\"] == \"value\")\n  |> count()\n  |> yield(name: \"count\")",
          "refId": "A"
        }
      ],
      "title": "Warning count",
      "type": "stat"
    },
    {
      "datasource": {
        "type": "influxdb",
        "uid": "${DS_INFLUXDB}"
      },
      "description": "",
      "fieldConfig": {
        "defaults": {
          "color": {
            "mode": "thresholds"
          },
          "mappings": [],
          "thresholds": {
            "mode": "absolute",
            "steps": [
              {
                "color": "green",
                "value": null
              },
              {
                "color": "red",
                "value": 80
              }
            ]
          }
        },
        "overrides": []
      },
      "gridPos": {
        "h": 4,
        "w": 2,
        "x": 6,
        "y": 2
      },
      "id": 29,
      "options": {
        "colorMode": "value",
        "graphMode": "none",
        "justifyMode": "auto",
        "orientation": "auto",
        "percentChangeColorMode": "standard",
        "reduceOptions": {
          "calcs": [
            "last"
          ],
          "fields": "",
          "values": false
        },
        "showPercentChange": false,
        "text": {},
        "textMode": "auto",
        "wideLayout": true
      },
      "pluginVersion": "11.2.0",
      "targets": [
        {
          "datasource": {
            "type": "influxdb",
            "uid": "${DS_INFLUXDB}"
          },
          "query": "from(bucket: \"$server\")\n  |> range(start: v.timeRangeStart, stop: v.timeRangeStop)\n  |> filter(fn: (r) => r[\"_measurement\"] == \"clients\")\n  |> last()",
          "refId": "A"
        }
      ],
      "title": "Connected Clients",
      "type": "stat"
    },
    {
      "datasource": {
        "type": "influxdb",
        "uid": "${DS_INFLUXDB}"
      },
      "description": "Clients in the connection Queue",
      "fieldConfig": {
        "defaults": {
          "color": {
            "mode": "thresholds"
          },
          "mappings": [],
          "min": 0,
          "thresholds": {
            "mode": "absolute",
            "steps": [
              {
                "color": "green",
                "value": null
              },
              {
                "color": "red",
                "value": 80
              }
            ]
          }
        },
        "overrides": []
      },
      "gridPos": {
        "h": 4,
        "w": 2,
        "x": 8,
        "y": 2
      },
      "id": 64,
      "options": {
        "colorMode": "value",
        "graphMode": "area",
        "justifyMode": "auto",
        "orientation": "auto",
        "percentChangeColorMode": "standard",
        "reduceOptions": {
          "calcs": [
            "lastNotNull"
          ],
          "fields": "",
          "values": false
        },
        "showPercentChange": false,
        "textMode": "auto",
        "wideLayout": true
      },
      "pluginVersion": "11.2.0",
      "targets": [
        {
          "datasource": {
            "type": "influxdb",
            "uid": "${DS_INFLUXDB}"
          },
          "query": "from(bucket: \"$server\")\n  |> range(start: v.timeRangeStart, stop: v.timeRangeStop)\n  |> filter(fn: (r) => r[\"_measurement\"] == \"clientsQueue\")\n  |> last()",
          "refId": "A"
        }
      ],
      "title": "Queue Clients",
      "type": "stat"
    },
    {
      "datasource": {
        "type": "influxdb",
        "uid": "${DS_INFLUXDB}"
      },
      "fieldConfig": {
        "defaults": {
          "color": {
            "mode": "thresholds"
          },
          "mappings": [],
          "min": 0,
          "thresholds": {
            "mode": "absolute",
            "steps": [
              {
                "color": "green",
                "value": null
              }
            ]
          },
          "unit": "decmbytes"
        },
        "overrides": []
      },
      "gridPos": {
        "h": 4,
        "w": 2,
        "x": 10,
        "y": 2
      },
      "id": 27,
      "options": {
        "colorMode": "value",
        "graphMode": "area",
        "justifyMode": "auto",
        "orientation": "auto",
        "percentChangeColorMode": "standard",
        "reduceOptions": {
          "calcs": [
            "lastNotNull"
          ],
          "fields": "",
          "values": false
        },
        "showPercentChange": false,
        "text": {},
        "textMode": "auto",
        "wideLayout": true
      },
      "pluginVersion": "11.2.0",
      "targets": [
        {
          "datasource": {
            "type": "influxdb",
            "uid": "${DS_INFLUXDB}"
          },
          "query": "from(bucket: \"$server\")\n  |> range(start: v.timeRangeStart, stop: v.timeRangeStop)\n  |> filter(fn: (r) => r[\"_measurement\"] == \"memory\")\n",
          "refId": "A"
        }
      ],
      "title": "Memory",
      "type": "stat"
    },
    {
      "datasource": {
        "type": "influxdb",
        "uid": "${DS_INFLUXDB}"
      },
      "fieldConfig": {
        "defaults": {
          "color": {
            "mode": "thresholds"
          },
          "mappings": [],
          "thresholds": {
            "mode": "absolute",
            "steps": [
              {
                "color": "green",
                "value": null
              },
              {
                "color": "red",
                "value": 80
              }
            ]
          }
        },
        "overrides": []
      },
      "gridPos": {
        "h": 4,
        "w": 2,
        "x": 12,
        "y": 2
      },
      "id": 59,
      "options": {
        "colorMode": "value",
        "graphMode": "area",
        "justifyMode": "auto",
        "orientation": "auto",
        "percentChangeColorMode": "standard",
        "reduceOptions": {
          "calcs": [
            "lastNotNull"
          ],
          "fields": "",
          "values": false
        },
        "showPercentChange": false,
        "textMode": "auto",
        "wideLayout": true
      },
      "pluginVersion": "11.2.0",
      "targets": [
        {
          "datasource": {
            "type": "influxdb",
            "uid": "${DS_INFLUXDB}"
          },
          "query": "from(bucket: \"$server\")\n  |> range(start: v.timeRangeStart, stop: v.timeRangeStop)\n  |> filter(fn: (r) => r[\"_measurement\"] == \"threads\")\n  |> aggregateWindow(every: v.windowPeriod, fn: mean, createEmpty: false)\n  |> yield(name: \"mean\")",
          "refId": "A"
        }
      ],
      "title": "Threads",
      "type": "stat"
    },
    {
      "datasource": {
        "type": "influxdb",
        "uid": "${DS_INFLUXDB}"
      },
      "fieldConfig": {
        "defaults": {
          "color": {
            "mode": "thresholds"
          },
          "mappings": [],
          "thresholds": {
            "mode": "absolute",
            "steps": [
              {
                "color": "green",
                "value": null
              },
              {
                "color": "red",
                "value": 80
              }
            ]
          }
        },
        "overrides": []
      },
      "gridPos": {
        "h": 4,
        "w": 2,
        "x": 14,
        "y": 2
      },
      "id": 63,
      "options": {
        "colorMode": "value",
        "graphMode": "area",
        "justifyMode": "auto",
        "orientation": "auto",
        "percentChangeColorMode": "standard",
        "reduceOptions": {
          "calcs": [
            "lastNotNull"
          ],
          "fields": "",
          "values": false
        },
        "showPercentChange": false,
        "textMode": "auto",
        "wideLayout": true
      },
      "pluginVersion": "11.2.0",
      "targets": [
        {
          "datasource": {
            "type": "influxdb",
            "uid": "${DS_INFLUXDB}"
          },
          "query": "import \"date\"\nfrom(bucket: \"$server\")\n  |> range(start: date.sub(d: ${avgti}, from: v.timeRangeStop), stop: v.timeRangeStop)\n  |> filter(fn: (r) => r[\"_measurement\"] == \"l2stickspersec\")\n  |> mean()",
          "refId": "A"
        }
      ],
      "title": "Avg Ticks/s",
      "type": "stat"
    },
    {
      "collapsed": false,
      "datasource": {
        "type": "influxdb",
        "uid": "W4jibRH4z"
      },
      "gridPos": {
        "h": 1,
        "w": 24,
        "x": 0,
        "y": 6
      },
      "id": 21,
      "panels": [],
      "targets": [
        {
          "datasource": {
            "type": "influxdb",
            "uid": "W4jibRH4z"
          },
          "refId": "A"
        }
      ],
      "title": "Full",
      "type": "row"
    },
    {
      "datasource": {
        "type": "influxdb",
        "uid": "${DS_INFLUXDB}"
      },
      "fieldConfig": {
        "defaults": {
          "color": {
            "mode": "palette-classic"
          },
          "custom": {
            "axisBorderShow": false,
            "axisCenteredZero": false,
            "axisColorMode": "text",
            "axisLabel": "",
            "axisPlacement": "auto",
            "barAlignment": 0,
            "barWidthFactor": 0.6,
            "drawStyle": "line",
            "fillOpacity": 30,
            "gradientMode": "none",
            "hideFrom": {
              "legend": false,
              "tooltip": false,
              "viz": false
            },
            "insertNulls": 20000,
            "lineInterpolation": "smooth",
            "lineWidth": 3,
            "pointSize": 5,
            "scaleDistribution": {
              "type": "linear"
            },
            "showPoints": "auto",
            "spanNulls": false,
            "stacking": {
              "group": "A",
              "mode": "none"
            },
            "thresholdsStyle": {
              "mode": "off"
            }
          },
          "mappings": [],
          "min": 0,
          "thresholds": {
            "mode": "absolute",
            "steps": [
              {
                "color": "green",
                "value": null
              },
              {
                "color": "red",
                "value": 80
              }
            ]
          },
          "unit": "ms"
        },
        "overrides": []
      },
      "gridPos": {
        "h": 9,
        "w": 12,
        "x": 0,
        "y": 7
      },
      "id": 31,
      "options": {
        "legend": {
          "calcs": [
            "last"
          ],
          "displayMode": "list",
          "placement": "bottom",
          "showLegend": true
        },
        "tooltip": {
          "mode": "single",
          "sort": "none"
        }
      },
      "targets": [
        {
          "datasource": {
            "type": "influxdb",
            "uid": "${DS_INFLUXDB}"
          },
          "query": "from(bucket: \"$server\")\n  |> range(start: v.timeRangeStart, stop: v.timeRangeStop)\n  |> filter(fn: (r) => r[\"_measurement\"] == \"l2avgticktime\")\n",
          "refId": "A"
        }
      ],
      "title": "Ticktime",
      "type": "timeseries"
    },
    {
      "datasource": {
        "type": "influxdb",
        "uid": "${DS_INFLUXDB}"
      },
      "fieldConfig": {
        "defaults": {
          "color": {
            "mode": "palette-classic"
          },
          "custom": {
            "axisBorderShow": false,
            "axisCenteredZero": false,
            "axisColorMode": "text",
            "axisLabel": "",
            "axisPlacement": "auto",
            "barAlignment": 0,
            "barWidthFactor": 0.6,
            "drawStyle": "line",
            "fillOpacity": 30,
            "gradientMode": "none",
            "hideFrom": {
              "legend": false,
              "tooltip": false,
              "viz": false
            },
            "insertNulls": 20000,
            "lineInterpolation": "smooth",
            "lineWidth": 3,
            "pointSize": 5,
            "scaleDistribution": {
              "type": "linear"
            },
            "showPoints": "auto",
            "spanNulls": false,
            "stacking": {
              "group": "A",
              "mode": "none"
            },
            "thresholdsStyle": {
              "mode": "off"
            }
          },
          "mappings": [],
          "min": 0,
          "thresholds": {
            "mode": "absolute",
            "steps": [
              {
                "color": "green",
                "value": null
              },
              {
                "color": "red",
                "value": 80
              }
            ]
          }
        },
        "overrides": []
      },
      "gridPos": {
        "h": 9,
        "w": 12,
        "x": 12,
        "y": 7
      },
      "id": 32,
      "options": {
        "legend": {
          "calcs": [],
          "displayMode": "list",
          "placement": "bottom",
          "showLegend": false
        },
        "tooltip": {
          "mode": "single",
          "sort": "none"
        }
      },
      "targets": [
        {
          "datasource": {
            "type": "influxdb",
            "uid": "${DS_INFLUXDB}"
          },
          "query": "from(bucket: \"$server\")\n  |> range(start: v.timeRangeStart, stop: v.timeRangeStop)\n  |> filter(fn: (r) => r[\"_measurement\"] == \"l2stickspersec\")\n",
          "refId": "A"
        }
      ],
      "title": "Ticks/s",
      "type": "timeseries"
    },
    {
      "datasource": {
        "type": "influxdb",
        "uid": "${DS_INFLUXDB}"
      },
      "fieldConfig": {
        "defaults": {
          "color": {
            "mode": "palette-classic"
          },
          "custom": {
            "axisBorderShow": false,
            "axisCenteredZero": false,
            "axisColorMode": "text",
            "axisLabel": "",
            "axisPlacement": "auto",
            "barAlignment": 0,
            "barWidthFactor": 0.6,
            "drawStyle": "line",
            "fillOpacity": 33,
            "gradientMode": "none",
            "hideFrom": {
              "legend": false,
              "tooltip": false,
              "viz": false
            },
            "insertNulls": 20000,
            "lineInterpolation": "smooth",
            "lineStyle": {
              "fill": "solid"
            },
            "lineWidth": 3,
            "pointSize": 5,
            "scaleDistribution": {
              "type": "linear"
            },
            "showPoints": "auto",
            "spanNulls": false,
            "stacking": {
              "group": "A",
              "mode": "none"
            },
            "thresholdsStyle": {
              "mode": "off"
            }
          },
          "mappings": [],
          "min": 0,
          "thresholds": {
            "mode": "absolute",
            "steps": [
              {
                "color": "green",
                "value": null
              },
              {
                "color": "red",
                "value": 900
              }
            ]
          },
          "unit": "decmbytes"
        },
        "overrides": []
      },
      "gridPos": {
        "h": 9,
        "w": 12,
        "x": 0,
        "y": 16
      },
      "id": 10,
      "options": {
        "legend": {
          "calcs": [],
          "displayMode": "list",
          "placement": "bottom",
          "showLegend": false
        },
        "tooltip": {
          "mode": "single",
          "sort": "none"
        }
      },
      "pluginVersion": "8.2.3",
      "targets": [
        {
          "datasource": {
            "type": "influxdb",
            "uid": "${DS_INFLUXDB}"
          },
          "query": "from(bucket: \"$server\")\n  |> range(start: v.timeRangeStart, stop: v.timeRangeStop)\n  |> filter(fn: (r) => r[\"_measurement\"] == \"memory\" or r[\"_measurement\"] == \"memoryManaged\")\n  |> filter(fn: (r) => r[\"_field\"] == \"value\")\n",
          "refId": "A"
        }
      ],
      "title": "Memory",
      "type": "timeseries"
    },
    {
      "datasource": {
        "type": "influxdb",
        "uid": "${DS_INFLUXDB}"
      },
      "fieldConfig": {
        "defaults": {
          "color": {
            "mode": "palette-classic"
          },
          "custom": {
            "axisBorderShow": false,
            "axisCenteredZero": false,
            "axisColorMode": "text",
            "axisLabel": "",
            "axisPlacement": "auto",
            "barAlignment": 0,
            "barWidthFactor": 0.6,
            "drawStyle": "line",
            "fillOpacity": 35,
            "gradientMode": "hue",
            "hideFrom": {
              "legend": false,
              "tooltip": false,
              "viz": false
            },
            "insertNulls": 20000,
            "lineInterpolation": "smooth",
            "lineStyle": {
              "fill": "solid"
            },
            "lineWidth": 3,
            "pointSize": 5,
            "scaleDistribution": {
              "type": "linear"
            },
            "showPoints": "auto",
            "spanNulls": false,
            "stacking": {
              "group": "A",
              "mode": "none"
            },
            "thresholdsStyle": {
              "mode": "off"
            }
          },
          "mappings": [],
          "min": 0,
          "thresholds": {
            "mode": "absolute",
            "steps": [
              {
                "color": "green",
                "value": null
              }
            ]
          }
        },
        "overrides": [
          {
            "matcher": {
              "id": "byName",
              "options": "entities value"
            },
            "properties": [
              {
                "id": "displayName",
                "value": "loaded entities"
              }
            ]
          },
          {
            "matcher": {
              "id": "byName",
              "options": "entitiesActive value"
            },
            "properties": [
              {
                "id": "displayName",
                "value": "active entities"
              }
            ]
          }
        ]
      },
      "gridPos": {
        "h": 9,
        "w": 12,
        "x": 12,
        "y": 16
      },
      "id": 4,
      "options": {
        "legend": {
          "calcs": [
            "last"
          ],
          "displayMode": "list",
          "placement": "bottom",
          "showLegend": true
        },
        "tooltip": {
          "mode": "single",
          "sort": "none"
        }
      },
      "targets": [
        {
          "datasource": {
            "type": "influxdb",
            "uid": "${DS_INFLUXDB}"
          },
          "query": "from(bucket: \"$server\")\n  |> range(start: v.timeRangeStart, stop: v.timeRangeStop)\n  |> filter(fn: (r) => r[\"_measurement\"] == \"entities\" or r[\"_measurement\"] == \"entitiesActive\")\n  |> filter(fn: (r) => r[\"_field\"] == \"value\")\n",
          "refId": "A"
        }
      ],
      "title": "Entities",
      "type": "timeseries"
    },
    {
      "datasource": {
        "type": "influxdb",
        "uid": "${DS_INFLUXDB}"
      },
      "fieldConfig": {
        "defaults": {
          "color": {
            "mode": "palette-classic"
          },
          "custom": {
            "axisBorderShow": false,
            "axisCenteredZero": false,
            "axisColorMode": "text",
            "axisLabel": "",
            "axisPlacement": "auto",
            "barAlignment": 0,
            "barWidthFactor": 0.6,
            "drawStyle": "line",
            "fillOpacity": 35,
            "gradientMode": "none",
            "hideFrom": {
              "legend": false,
              "tooltip": false,
              "viz": false
            },
            "insertNulls": 20000,
            "lineInterpolation": "smooth",
            "lineWidth": 3,
            "pointSize": 5,
            "scaleDistribution": {
              "type": "linear"
            },
            "showPoints": "auto",
            "spanNulls": false,
            "stacking": {
              "group": "A",
              "mode": "none"
            },
            "thresholdsStyle": {
              "mode": "off"
            }
          },
          "mappings": [],
          "min": 0,
          "thresholds": {
            "mode": "absolute",
            "steps": [
              {
                "color": "green",
                "value": null
              },
              {
                "color": "red",
                "value": 80
              }
            ]
          }
        },
        "overrides": []
      },
      "gridPos": {
        "h": 9,
        "w": 12,
        "x": 0,
        "y": 25
      },
      "id": 6,
      "options": {
        "legend": {
          "calcs": [],
          "displayMode": "list",
          "placement": "bottom",
          "showLegend": false
        },
        "tooltip": {
          "mode": "single",
          "sort": "none"
        }
      },
      "targets": [
        {
          "datasource": {
            "type": "influxdb",
            "uid": "${DS_INFLUXDB}"
          },
          "query": "from(bucket: \"$server\")\n  |> range(start: v.timeRangeStart, stop: v.timeRangeStop)\n  |> filter(fn: (r) => r[\"_measurement\"] == \"generatingChunks\")\n  |> filter(fn: (r) => r[\"_field\"] == \"value\")\n",
          "refId": "A"
        }
      ],
      "title": "Generating Chunks",
      "type": "timeseries"
    },
    {
      "datasource": {
        "type": "influxdb",
        "uid": "${DS_INFLUXDB}"
      },
      "fieldConfig": {
        "defaults": {
          "color": {
            "mode": "palette-classic"
          },
          "custom": {
            "axisBorderShow": false,
            "axisCenteredZero": false,
            "axisColorMode": "text",
            "axisLabel": "",
            "axisPlacement": "auto",
            "barAlignment": 0,
            "barWidthFactor": 0.6,
            "drawStyle": "line",
            "fillOpacity": 35,
            "gradientMode": "none",
            "hideFrom": {
              "legend": false,
              "tooltip": false,
              "viz": false
            },
            "insertNulls": 20000,
            "lineInterpolation": "stepBefore",
            "lineWidth": 3,
            "pointSize": 5,
            "scaleDistribution": {
              "type": "linear"
            },
            "showPoints": "auto",
            "spanNulls": false,
            "stacking": {
              "group": "A",
              "mode": "none"
            },
            "thresholdsStyle": {
              "mode": "off"
            }
          },
          "mappings": [],
          "min": 0,
          "thresholds": {
            "mode": "absolute",
            "steps": [
              {
                "color": "green",
                "value": null
              }
            ]
          }
        },
        "overrides": [
          {
            "matcher": {
              "id": "byName",
              "options": "clients value"
            },
            "properties": [
              {
                "id": "displayName",
                "value": "Client"
              }
            ]
          },
          {
            "matcher": {
              "id": "byName",
              "options": "clientsQueue value"
            },
            "properties": [
              {
                "id": "displayName",
                "value": "Queue"
              }
            ]
          }
        ]
      },
      "gridPos": {
        "h": 9,
        "w": 12,
        "x": 12,
        "y": 25
      },
      "id": 8,
      "options": {
        "legend": {
          "calcs": [
            "lastNotNull"
          ],
          "displayMode": "list",
          "placement": "bottom",
          "showLegend": true
        },
        "tooltip": {
          "mode": "single",
          "sort": "none"
        }
      },
      "targets": [
        {
          "datasource": {
            "type": "influxdb",
            "uid": "${DS_INFLUXDB}"
          },
          "query": "from(bucket: \"$server\")\n  |> range(start: v.timeRangeStart, stop: v.timeRangeStop)\n  |> filter(fn: (r) => r[\"_measurement\"] == \"clients\" or r[\"_measurement\"] == \"clientsQueue\")\n  |> filter(fn: (r) => r[\"_field\"] == \"value\")\n",
          "refId": "A"
        }
      ],
      "title": "Connected Clients",
      "type": "timeseries"
    },
    {
      "datasource": {
        "type": "influxdb",
        "uid": "${DS_INFLUXDB}"
      },
      "fieldConfig": {
        "defaults": {
          "color": {
            "mode": "palette-classic"
          },
          "custom": {
            "axisBorderShow": false,
            "axisCenteredZero": false,
            "axisColorMode": "text",
            "axisLabel": "",
            "axisPlacement": "auto",
            "barAlignment": 0,
            "barWidthFactor": 0.6,
            "drawStyle": "line",
            "fillOpacity": 35,
            "gradientMode": "none",
            "hideFrom": {
              "legend": false,
              "tooltip": false,
              "viz": false
            },
            "insertNulls": 20000,
            "lineInterpolation": "smooth",
            "lineWidth": 3,
            "pointSize": 5,
            "scaleDistribution": {
              "type": "linear"
            },
            "showPoints": "auto",
            "spanNulls": false,
            "stacking": {
              "group": "A",
              "mode": "none"
            },
            "thresholdsStyle": {
              "mode": "off"
            }
          },
          "mappings": [],
          "min": 0,
          "thresholds": {
            "mode": "absolute",
            "steps": [
              {
                "color": "green",
                "value": null
              },
              {
                "color": "red",
                "value": 80
              }
            ]
          }
        },
        "overrides": []
      },
      "gridPos": {
        "h": 9,
        "w": 12,
        "x": 0,
        "y": 34
      },
      "id": 2,
      "options": {
        "legend": {
          "calcs": [],
          "displayMode": "list",
          "placement": "bottom",
          "showLegend": false
        },
        "tooltip": {
          "mode": "single",
          "sort": "none"
        }
      },
      "targets": [
        {
          "datasource": {
            "type": "influxdb",
            "uid": "${DS_INFLUXDB}"
          },
          "query": "from(bucket: \"$server\")\n  |> range(start: v.timeRangeStart, stop: v.timeRangeStop)\n  |> filter(fn: (r) => r[\"_measurement\"] == \"chunks\")\n  |> filter(fn: (r) => r[\"_field\"] == \"value\")\n",
          "refId": "A"
        }
      ],
      "title": "Loaded Chunks",
      "type": "timeseries"
    },
    {
      "datasource": {
        "type": "influxdb",
        "uid": "${DS_INFLUXDB}"
      },
      "fieldConfig": {
        "defaults": {
          "color": {
            "mode": "palette-classic"
          },
          "custom": {
            "axisBorderShow": false,
            "axisCenteredZero": false,
            "axisColorMode": "text",
            "axisLabel": "",
            "axisPlacement": "auto",
            "barAlignment": 0,
            "barWidthFactor": 0.6,
            "drawStyle": "line",
            "fillOpacity": 0,
            "gradientMode": "none",
            "hideFrom": {
              "legend": false,
              "tooltip": false,
              "viz": false
            },
            "insertNulls": 20000,
            "lineInterpolation": "linear",
            "lineWidth": 1,
            "pointSize": 5,
            "scaleDistribution": {
              "type": "linear"
            },
            "showPoints": "auto",
            "spanNulls": false,
            "stacking": {
              "group": "A",
              "mode": "none"
            },
            "thresholdsStyle": {
              "mode": "off"
            }
          },
          "mappings": [],
          "min": 0,
          "thresholds": {
            "mode": "absolute",
            "steps": [
              {
                "color": "green",
                "value": null
              }
            ]
          }
        },
        "overrides": [
          {
            "matcher": {
              "id": "byName",
              "options": "callbacksBlock value"
            },
            "properties": [
              {
                "id": "displayName",
                "value": "Block callbacks"
              }
            ]
          },
          {
            "matcher": {
              "id": "byName",
              "options": "callbacksEntity value"
            },
            "properties": [
              {
                "id": "displayName",
                "value": "Entity callbacks"
              }
            ]
          },
          {
            "matcher": {
              "id": "byName",
              "options": "listenersBlock value"
            },
            "properties": [
              {
                "id": "displayName",
                "value": "Block listener"
              }
            ]
          },
          {
            "matcher": {
              "id": "byName",
              "options": "listenersEntity value"
            },
            "properties": [
              {
                "id": "displayName",
                "value": "Entity listener"
              }
            ]
          },
          {
            "matcher": {
              "id": "byName",
              "options": "singleCallbacksBlock value"
            },
            "properties": [
              {
                "id": "displayName",
                "value": "Block singe callback"
              }
            ]
          }
        ]
      },
      "gridPos": {
        "h": 9,
        "w": 12,
        "x": 12,
        "y": 34
      },
      "id": 62,
      "options": {
        "legend": {
          "calcs": [
            "lastNotNull"
          ],
          "displayMode": "list",
          "placement": "bottom",
          "showLegend": true
        },
        "tooltip": {
          "mode": "single",
          "sort": "none"
        }
      },
      "targets": [
        {
          "datasource": {
            "type": "influxdb",
            "uid": "${DS_INFLUXDB}"
          },
          "query": "from(bucket: \"$server\")\n  |> range(start: v.timeRangeStart, stop: v.timeRangeStop)\n  |> filter(fn: (r) => r[\"_measurement\"] == \"callbacksBlock\" or r[\"_measurement\"] == \"callbacksEntity\" or r[\"_measurement\"] == \"listenersBlock\" or r[\"_measurement\"] == \"listenersEntity\" or r[\"_measurement\"] == \"singleCallbacksBlock\")\n  |> aggregateWindow(every: v.windowPeriod, fn: mean, createEmpty: false)\n  |> yield(name: \"mean\")",
          "refId": "A"
        }
      ],
      "title": "Tick/Callback Listener",
      "type": "timeseries"
    },
    {
      "datasource": {
        "type": "influxdb",
        "uid": "${DS_INFLUXDB}"
      },
      "fieldConfig": {
        "defaults": {
          "color": {
            "mode": "palette-classic"
          },
          "custom": {
            "axisBorderShow": false,
            "axisCenteredZero": false,
            "axisColorMode": "text",
            "axisLabel": "",
            "axisPlacement": "auto",
            "barAlignment": 0,
            "barWidthFactor": 0.6,
            "drawStyle": "line",
            "fillOpacity": 30,
            "gradientMode": "none",
            "hideFrom": {
              "legend": false,
              "tooltip": false,
              "viz": false
            },
            "insertNulls": 20000,
            "lineInterpolation": "smooth",
            "lineWidth": 3,
            "pointSize": 5,
            "scaleDistribution": {
              "type": "linear"
            },
            "showPoints": "auto",
            "spanNulls": false,
            "stacking": {
              "group": "A",
              "mode": "none"
            },
            "thresholdsStyle": {
              "mode": "off"
            }
          },
          "mappings": [],
          "min": 0,
          "thresholds": {
            "mode": "absolute",
            "steps": [
              {
                "color": "green",
                "value": null
              },
              {
                "color": "red",
                "value": 80
              }
            ]
          }
        },
        "overrides": [
          {
            "matcher": {
              "id": "byName",
              "options": "packetspresec value"
            },
            "properties": [
              {
                "id": "displayName",
                "value": "TCP"
              }
            ]
          },
          {
            "matcher": {
              "id": "byName",
              "options": "packetspresecudp value"
            },
            "properties": [
              {
                "id": "displayName",
                "value": "UDP"
              }
            ]
          }
        ]
      },
      "gridPos": {
        "h": 9,
        "w": 12,
        "x": 0,
        "y": 43
      },
      "id": 33,
      "options": {
        "legend": {
          "calcs": [
            "last"
          ],
          "displayMode": "list",
          "placement": "bottom",
          "showLegend": true
        },
        "tooltip": {
          "mode": "single",
          "sort": "none"
        }
      },
      "targets": [
        {
          "datasource": {
            "type": "influxdb",
            "uid": "${DS_INFLUXDB}"
          },
          "query": "from(bucket: \"$server\")\n  |> range(start: v.timeRangeStart, stop: v.timeRangeStop)\n  |> filter(fn: (r) => r[\"_measurement\"] == \"packetspresec\" or r[\"_measurement\"] == \"packetspresecudp\")\n",
          "refId": "A"
        }
      ],
      "title": "Network: Packets/s",
      "type": "timeseries"
    },
    {
      "datasource": {
        "type": "influxdb",
        "uid": "${DS_INFLUXDB}"
      },
      "fieldConfig": {
        "defaults": {
          "color": {
            "mode": "palette-classic"
          },
          "custom": {
            "axisBorderShow": false,
            "axisCenteredZero": false,
            "axisColorMode": "text",
            "axisLabel": "",
            "axisPlacement": "auto",
            "barAlignment": 0,
            "barWidthFactor": 0.6,
            "drawStyle": "line",
            "fillOpacity": 30,
            "gradientMode": "none",
            "hideFrom": {
              "legend": false,
              "tooltip": false,
              "viz": false
            },
            "insertNulls": 20000,
            "lineInterpolation": "smooth",
            "lineWidth": 3,
            "pointSize": 5,
            "scaleDistribution": {
              "type": "linear"
            },
            "showPoints": "auto",
            "spanNulls": false,
            "stacking": {
              "group": "A",
              "mode": "none"
            },
            "thresholdsStyle": {
              "mode": "off"
            }
          },
          "mappings": [],
          "min": 0,
          "thresholds": {
            "mode": "absolute",
            "steps": [
              {
                "color": "green",
                "value": null
              },
              {
                "color": "red",
                "value": 80
              }
            ]
          },
          "unit": "KBs"
        },
        "overrides": [
          {
            "matcher": {
              "id": "byName",
              "options": "kilobytespersec value"
            },
            "properties": [
              {
                "id": "displayName",
                "value": "TCP"
              }
            ]
          },
          {
            "matcher": {
              "id": "byName",
              "options": "kilobytespersecudp value"
            },
            "properties": [
              {
                "id": "displayName",
                "value": "UDP"
              }
            ]
          }
        ]
      },
      "gridPos": {
        "h": 9,
        "w": 12,
        "x": 12,
        "y": 43
      },
      "id": 34,
      "options": {
        "legend": {
          "calcs": [
            "last"
          ],
          "displayMode": "list",
          "placement": "bottom",
          "showLegend": true
        },
        "tooltip": {
          "mode": "single",
          "sort": "none"
        }
      },
      "targets": [
        {
          "datasource": {
            "type": "influxdb",
            "uid": "${DS_INFLUXDB}"
          },
          "query": "from(bucket: \"$server\")\n  |> range(start: v.timeRangeStart, stop: v.timeRangeStop)\n  |> filter(fn: (r) => r[\"_measurement\"] == \"kilobytespersec\" or r[\"_measurement\"] == \"kilobytespersecudp\")\n",
          "refId": "A"
        }
      ],
      "title": "Network: Kb/s",
      "type": "timeseries"
    },
    {
      "datasource": {
        "type": "influxdb",
        "uid": "${DS_INFLUXDB}"
      },
      "gridPos": {
        "h": 9,
        "w": 12,
        "x": 12,
        "y": 52
      },
      "id": 40,
      "options": {
        "dedupStrategy": "none",
        "enableLogDetails": true,
        "prettifyLogMessage": false,
        "showCommonLabels": false,
        "showLabels": false,
        "showTime": true,
        "sortOrder": "Descending",
        "wrapLogMessage": false
      },
      "targets": [
        {
          "datasource": {
            "type": "influxdb",
            "uid": "${DS_INFLUXDB}"
          },
          "query": "from(bucket: \"$server\")\n  |> range(start: v.timeRangeStart, stop: v.timeRangeStop)\n  |> filter(fn: (r) => r[\"_measurement\"] == \"deaths\")\n",
          "refId": "A"
        }
      ],
      "title": "Deaths",
      "type": "logs"
    },
    {
      "collapsed": true,
      "gridPos": {
        "h": 1,
        "w": 24,
        "x": 0,
        "y": 61
      },
      "id": 61,
      "panels": [
        {
          "datasource": {
            "type": "influxdb",
            "uid": "${DS_INFLUXDB}"
          },
          "gridPos": {
            "h": 18,
            "w": 12,
            "x": 0,
            "y": 70
          },
          "id": 16,
          "options": {
            "dedupStrategy": "none",
            "enableLogDetails": true,
            "prettifyLogMessage": false,
            "showCommonLabels": false,
            "showLabels": false,
            "showTime": true,
            "sortOrder": "Descending",
            "wrapLogMessage": false
          },
          "targets": [
            {
              "datasource": {
                "type": "influxdb",
                "uid": "${DS_INFLUXDB}"
              },
              "query": "from(bucket: \"$server\")\n  |> range(start: v.timeRangeStart, stop: v.timeRangeStop)\n  |> filter(fn: (r) => r[\"_measurement\"] == \"errors\")\n  |> filter(fn: (r) => r[\"_field\"] == \"value\")\n",
              "refId": "A"
            }
          ],
          "title": "Errors",
          "type": "logs"
        },
        {
          "datasource": {
            "type": "influxdb",
            "uid": "${DS_INFLUXDB}"
          },
          "gridPos": {
            "h": 9,
            "w": 12,
            "x": 12,
            "y": 70
          },
          "id": 14,
          "options": {
            "dedupStrategy": "none",
            "enableLogDetails": true,
            "prettifyLogMessage": false,
            "showCommonLabels": false,
            "showLabels": false,
            "showTime": true,
            "sortOrder": "Descending",
            "wrapLogMessage": false
          },
          "pluginVersion": "8.2.3",
          "targets": [
            {
              "datasource": {
                "type": "influxdb",
                "uid": "${DS_INFLUXDB}"
              },
              "query": "from(bucket: \"$server\")\n  |> range(start: v.timeRangeStart, stop: v.timeRangeStop)\n  |> filter(fn: (r) => r[\"_measurement\"] == \"warnings\")\n  |> filter(fn: (r) => r[\"_field\"] == \"value\")\n",
              "refId": "A"
            }
          ],
          "title": "Warnings",
          "type": "logs"
        },
        {
          "datasource": {
            "type": "influxdb",
            "uid": "${DS_INFLUXDB}"
          },
          "gridPos": {
            "h": 9,
            "w": 12,
            "x": 12,
            "y": 79
          },
          "id": 43,
          "options": {
            "dedupStrategy": "none",
            "enableLogDetails": true,
            "prettifyLogMessage": false,
            "showCommonLabels": false,
            "showLabels": false,
            "showTime": true,
            "sortOrder": "Descending",
            "wrapLogMessage": false
          },
          "pluginVersion": "8.2.3",
          "targets": [
            {
              "datasource": {
                "type": "influxdb",
                "uid": "${DS_INFLUXDB}"
              },
              "query": "from(bucket: \"$server\")\n  |> range(start: v.timeRangeStart, stop: v.timeRangeStop)\n  |> filter(fn: (r) => r[\"_measurement\"] == \"overloadwarnings\")\n  |> filter(fn: (r) => r[\"_field\"] == \"value\")\n",
              "refId": "A"
            }
          ],
          "title": "Overloaded warnings",
          "type": "logs"
        }
      ],
      "title": "Errors and Warnings",
      "type": "row"
    },
    {
      "collapsed": true,
      "datasource": {
        "type": "influxdb",
        "uid": "W4jibRH4z"
      },
      "gridPos": {
        "h": 1,
        "w": 24,
        "x": 0,
        "y": 62
      },
      "id": 42,
      "panels": [
        {
          "datasource": {
            "type": "influxdb",
            "uid": "${DS_INFLUXDB}"
          },
          "fieldConfig": {
            "defaults": {
              "color": {
                "mode": "thresholds"
              },
              "mappings": [],
              "min": 0,
              "thresholds": {
                "mode": "absolute",
                "steps": [
                  {
                    "color": "blue"
                  }
                ]
              },
              "unit": "s"
            },
            "overrides": []
          },
          "gridPos": {
            "h": 18,
            "w": 24,
            "x": 0,
            "y": 71
          },
          "id": 45,
          "options": {
            "displayMode": "gradient",
            "maxVizHeight": 300,
            "minVizHeight": 10,
            "minVizWidth": 0,
            "namePlacement": "auto",
            "orientation": "horizontal",
            "reduceOptions": {
              "calcs": [
                "lastNotNull"
              ],
              "fields": "",
              "limit": 20,
              "values": true
            },
            "showUnfilled": false,
            "sizing": "auto",
            "text": {},
            "valueMode": "color"
          },
          "pluginVersion": "11.2.0",
          "targets": [
            {
              "datasource": {
                "type": "influxdb",
                "uid": "${DS_INFLUXDB}"
              },
              "query": "from(bucket: \"$server\")\n  |> range(start: v.timeRangeStart, stop: v.timeRangeStop)\n  |> filter(fn: (r) => r[\"_measurement\"] == \"online\")\n  |> filter(fn: (r) => r[\"_field\"] == \"value\")\n  |> count()\n  |> map(fn: (r) => ({ r with\n    _value: r._value * 10\n  }))\n  |> group()\n  |> keep(columns: [\"player\", \"_value\"])\n  |> sort(columns: [\"_value\"], desc: true)",
              "refId": "A"
            }
          ],
          "title": "Playtime",
          "type": "bargauge"
        },
        {
          "datasource": {
            "type": "influxdb",
            "uid": "${DS_INFLUXDB}"
          },
          "fieldConfig": {
            "defaults": {
              "color": {
                "mode": "palette-classic"
              },
              "custom": {
                "axisBorderShow": false,
                "axisCenteredZero": false,
                "axisColorMode": "text",
                "axisLabel": "",
                "axisPlacement": "auto",
                "barAlignment": 0,
                "barWidthFactor": 0.6,
                "drawStyle": "line",
                "fillOpacity": 0,
                "gradientMode": "none",
                "hideFrom": {
                  "legend": false,
                  "tooltip": false,
                  "viz": false
                },
                "insertNulls": 20000,
                "lineInterpolation": "linear",
                "lineWidth": 1,
                "pointSize": 2,
                "scaleDistribution": {
                  "type": "linear"
                },
                "showPoints": "auto",
                "spanNulls": false,
                "stacking": {
                  "group": "A",
                  "mode": "none"
                },
                "thresholdsStyle": {
                  "mode": "area"
                }
              },
              "mappings": [],
              "thresholds": {
                "mode": "absolute",
                "steps": [
                  {
                    "color": "semi-dark-green"
                  },
                  {
                    "color": "dark-green",
                    "value": 0.16
                  },
                  {
                    "color": "dark-yellow",
                    "value": 0.25
                  },
                  {
                    "color": "dark-orange",
                    "value": 0.5
                  },
                  {
                    "color": "dark-red",
                    "value": 0.75
                  }
                ]
              },
              "unit": "s"
            },
            "overrides": []
          },
          "gridPos": {
            "h": 13,
            "w": 24,
            "x": 0,
            "y": 89
          },
          "id": 38,
          "options": {
            "legend": {
              "calcs": [],
              "displayMode": "list",
              "placement": "bottom",
              "showLegend": true
            },
            "tooltip": {
              "mode": "single",
              "sort": "none"
            }
          },
          "pluginVersion": "8.2.3",
          "targets": [
            {
              "datasource": {
                "type": "influxdb",
                "uid": "${DS_INFLUXDB}"
              },
              "query": "from(bucket: \"$server\")\n  |> range(start: v.timeRangeStart, stop: v.timeRangeStop)\n  |> filter(fn: (r) => r[\"_measurement\"] == \"online\")\n  |> filter(fn: (r) => r[\"_field\"] == \"value\")\n  |> filter(fn: (r) => r[\"_value\"] < $ping)\n",
              "refId": "A"
            }
          ],
          "title": "Player Ping",
          "transformations": [
            {
              "id": "labelsToFields",
              "options": {
                "mode": "columns",
                "valueLabel": "player"
              }
            }
          ],
          "type": "timeseries"
        }
      ],
      "targets": [
        {
          "datasource": {
            "type": "influxdb",
            "uid": "W4jibRH4z"
          },
          "refId": "A"
        }
      ],
      "title": "Players",
      "type": "row"
    },
    {
      "collapsed": true,
      "datasource": {
        "type": "influxdb",
        "uid": "W4jibRH4z"
      },
      "gridPos": {
        "h": 1,
        "w": 24,
        "x": 0,
        "y": 63
      },
      "id": 25,
      "panels": [
        {
          "datasource": {
            "type": "influxdb",
            "uid": "${DS_INFLUXDB}"
          },
          "gridPos": {
            "h": 26,
            "w": 11,
            "x": 0,
            "y": 72
          },
          "id": 12,
          "options": {
            "dedupStrategy": "none",
            "enableLogDetails": true,
            "prettifyLogMessage": false,
            "showCommonLabels": false,
            "showLabels": false,
            "showTime": true,
            "sortOrder": "Descending",
            "wrapLogMessage": false
          },
          "pluginVersion": "9.4.7",
          "targets": [
            {
              "datasource": {
                "type": "influxdb",
                "uid": "${DS_INFLUXDB}"
              },
              "query": "from(bucket: \"$server\")\n  |> range(start: v.timeRangeStart, stop: v.timeRangeStop)\n  |> filter(fn: (r) => r[\"_measurement\"] == \"logticks\")\n  |> yield()\n",
              "refId": "A"
            }
          ],
          "title": "Logticks",
          "type": "logs"
        },
        {
          "datasource": {
            "type": "influxdb",
            "uid": "${DS_INFLUXDB}"
          },
          "gridPos": {
            "h": 26,
            "w": 12,
            "x": 12,
            "y": 72
          },
          "id": 36,
          "interval": "5m",
          "options": {
            "dedupStrategy": "none",
            "enableLogDetails": true,
            "prettifyLogMessage": false,
            "showCommonLabels": false,
            "showLabels": false,
            "showTime": true,
            "sortOrder": "Descending",
            "wrapLogMessage": false
          },
          "targets": [
            {
              "datasource": {
                "type": "influxdb",
                "uid": "${DS_INFLUXDB}"
              },
              "query": "from(bucket: \"$server\")\n  |> range(start: v.timeRangeStart, stop: v.timeRangeStop)\n  |> filter(fn: (r) => r._measurement == \"logticks\")\n  |> pivot(rowKey: [\"_time\"], columnKey: [\"_field\"], valueColumn: \"_value\")\n  |> filter(fn: (r) => r.ms > ${logtickMs})",
              "refId": "A"
            }
          ],
          "title": "Logticks filtered by logtickMs",
          "type": "logs"
        }
      ],
      "targets": [
        {
          "datasource": {
            "type": "influxdb",
            "uid": "W4jibRH4z"
          },
          "refId": "A"
        }
      ],
      "title": "Logticks",
      "type": "row"
    }
  ],
  "refresh": "10s",
  "revision": 1,
  "schemaVersion": 39,
  "tags": [],
  "templating": {
    "list": [
      {
        "current": {
          "selected": false,
          "text": "serverstats",
          "value": "serverstats"
        },
        "hide": 0,
        "includeAll": false,
        "multi": false,
        "name": "server",
        "options": [
          {
            "selected": true,
            "text": "serverstats",
            "value": "serverstats"
          }
        ],
        "query": "serverstats",
        "queryValue": "",
        "skipUrlSync": false,
        "type": "custom"
      },
      {
        "current": {
          "selected": false,
          "text": "1",
          "value": "1"
        },
        "description": "ping in seconds",
        "hide": 0,
        "name": "ping",
        "options": [
          {
            "selected": false,
            "text": "0.500",
            "value": "0.500"
          }
        ],
        "query": "1",
        "skipUrlSync": false,
        "type": "textbox"
      },
      {
        "current": {
          "selected": true,
          "text": "100",
          "value": "100"
        },
        "description": "max logtick in ms",
        "hide": 0,
        "name": "logtickMs",
        "options": [
          {
            "selected": true,
            "text": "100",
            "value": "100"
          }
        ],
        "query": "100",
        "skipUrlSync": false,
        "type": "textbox"
      },
      {
        "current": {},
        "datasource": {
          "type": "influxdb",
          "uid": "${DS_INFLUXDB}"
        },
        "definition": "import \"influxdata/influxdb/schema\"\n\nschema.tagValues(\n  bucket: \"${server}\",\n  tag: \"player\",\n  predicate: (r) => true,\n  start: -1y\n)",
        "hide": 0,
        "includeAll": false,
        "multi": false,
        "name": "player",
        "options": [],
        "query": "import \"influxdata/influxdb/schema\"\n\nschema.tagValues(\n  bucket: \"${server}\",\n  tag: \"player\",\n  predicate: (r) => true,\n  start: -1y\n)",
        "refresh": 1,
        "regex": "",
        "skipUrlSync": false,
        "sort": 0,
        "type": "query"
      },
      {
        "auto": false,
        "auto_count": 30,
        "auto_min": "10s",
        "current": {
          "selected": false,
          "text": "5m",
          "value": "5m"
        },
        "description": "Avg Ticks/s interval",
        "hide": 0,
        "label": "AVI",
        "name": "avgti",
        "options": [
          {
            "selected": false,
            "text": "1m",
            "value": "1m"
          },
          {
            "selected": false,
            "text": "2m",
            "value": "2m"
          },
          {
            "selected": true,
            "text": "5m",
            "value": "5m"
          },
          {
            "selected": false,
            "text": "10m",
            "value": "10m"
          },
          {
            "selected": false,
            "text": "20m",
            "value": "20m"
          },
          {
            "selected": false,
            "text": "30m",
            "value": "30m"
          }
        ],
        "query": "1m,2m,5m,10m,20m,30m",
        "queryValue": "",
        "refresh": 2,
        "skipUrlSync": false,
        "type": "interval"
      }
    ]
  },
  "time": {
    "from": "now-1h",
    "to": "now"
  },
  "timepicker": {},
  "timezone": "",
  "title": "Vintage Story Server Metrics",
  "uid": "8VxOeA27k",
  "version": 21,
  "weekStart": ""
}